/home/rizhiy/anaconda3/envs/2d-physics/bin/python /home/rizhiy/projects/2d-physics/main.py
0 0 [0. 0.]
0 1 [10.  0.]
0 2 [ 0. 40.]
100 0 [-0.171  3.467]
100 1 [ 6.26  -4.217]
100 2 [-24.997  31.883]
200 0 [-1.922  8.669]
200 1 [-3.861 -1.038]
200 2 [-38.524  11.078]
300 0 [-6.544 13.759]
300 1 [-15.137   9.787]
300 2 [-33.813 -10.938]
400 0 [-13.564  16.825]
400 1 [-21.42   21.737]
400 2 [-15.369 -20.593]
500 0 [-21.022  17.375]
500 1 [-20.657  26.773]
500 2 [  4.052 -12.788]
600 0 [-26.926  16.307]
600 1 [-18.722  21.894]
600 2 [13.465  7.605]
700 0 [-30.341  14.891]
700 1 [-20.546  12.15 ]
700 2 [ 8.265 31.392]
800 0 [-31.423  14.292]
800 1 [-27.2     5.206]
800 2 [-10.304  49.374]
900 0 [-31.231  15.411]
900 1 [-35.783   6.861]
900 2 [-36.361  54.463]
1000 0 [-31.534  18.695]
1000 1 [-40.888  17.524]
1000 2 [-60.19   43.773]
1100 0 [-34.18   23.669]
1100 1 [-39.953  31.08 ]
1100 2 [-70.888  21.801]
1200 0 [-39.838  28.72 ]
1200 1 [-36.997  37.821]
1200 2 [-63.265   1.045]
1300 0 [-47.25   31.915]
1300 1 [-37.833  35.124]
1300 2 [-43.731  -5.749]
1400 0 [-54.204  32.552]
1400 1 [-45.481  27.452]
1400 2 [-25.352   4.689]
1500 0 [-59.188  31.316]
1500 1 [-57.342  21.566]
1500 2 [-18.241  26.383]
1600 0 [-61.834  29.525]
1600 1 [-68.245  22.516]
1600 2 [-25.975  49.841]
1700 0 [-62.73   28.632]
1700 1 [-72.003  30.1  ]
1700 2 [-46.44   66.026]
1800 0 [-63.011  29.926]
1800 1 [-67.005  38.423]
1800 2 [-72.928  68.356]
1900 0 [-64.091  33.9  ]
1900 1 [-59.083  42.25 ]
1900 2 [-95.157  55.063]
2000 0 [-67.275  39.607]
2000 1 [-57.449  40.753]
2000 2 [-102.667   32.27 ]
2100 0 [-72.943  44.765]
2100 1 [-65.701  37.754]
2100 2 [-92.18   13.277]
2200 0 [-79.902  47.369]
2200 1 [-80.751  37.556]
2200 2 [-71.926   9.555]
2300 0 [-86.391  47.12 ]
2300 1 [-94.4    41.984]
2300 2 [-54.959  22.504]
2400 0 [-91.248  45.206]
2400 1 [-99.632  49.146]
2400 2 [-50.293  45.175]
2500 0 [-94.113  43.406]
2500 1 [-95.313  52.854]
2500 2 [-60.467  68.002]
2600 0 [-95.193  43.245]
2600 1 [-88.021  49.959]
2600 2 [-82.536  82.231]
2700 0 [-95.368  45.526]
2700 1 [-85.418  44.291]
2700 2 [-109.093   81.887]
2800 0 [-96.2    50.121]
2800 1 [-91.024  41.593]
2800 2 [-129.492   66.346]
2900 0 [-99.342  55.628]
2900 1 [-102.728   46.526]
2900 2 [-133.931   43.193]
3000 0 [-105.257   59.908]
3000 1 [-114.439   57.703]
3000 2 [-121.036   26.151]
3100 0 [-112.674   61.62 ]
3100 1 [-119.249   68.14 ]
3100 2 [-100.478   25.338]
3200 0 [-119.526   61.11 ]
3200 1 [-117.576   70.472]
3200 2 [-85.066  40.443]
3300 0 [-124.3     59.632]
3300 1 [-115.349   63.99 ]
3300 2 [-82.785  63.801]
3400 0 [-126.552   58.497]
3400 1 [-117.289   54.408]
3400 2 [-95.228  85.793]
3500 0 [-126.848   58.76 ]
3500 1 [-124.079   49.236]
3500 2 [-118.68    97.941]
3600 0 [-126.616   61.081]
3600 1 [-132.413   53.375]
3600 2 [-145.046   94.903]
3700 0 [-127.822   65.401]
3700 1 [-137.137   65.873]
3700 2 [-163.326   77.278]
3800 0 [-131.968   70.586]
3800 1 [-136.548   78.829]
3800 2 [-164.561   54.129]
3900 0 [-138.792   74.761]
3900 1 [-134.432   83.294]
3900 2 [-149.441   39.423]
4000 0 [-146.312   76.598]
4000 1 [-136.449   78.4  ]
4000 2 [-128.94    41.664]
4100 0 [-152.471   76.185]
4100 1 [-144.605   69.927]
4100 2 [-115.406   58.862]
4200 0 [-156.286   74.581]
4200 1 [-155.976   64.784]
4200 2 [-115.721   82.673]
4300 0 [-157.867   73.134]
4300 1 [-165.474   67.58 ]
4300 2 [-130.466  103.515]
4400 0 [-158.179   73.22 ]
4400 1 [-167.058   76.333]
4400 2 [-155.115  113.294]
4500 0 [-158.618   75.805]
4500 1 [-160.958   84.979]
4500 2 [-180.898  107.471]
4600 0 [-160.674   80.787]
4600 1 [-154.382   88.242]
4600 2 [-196.692   88.02 ]
4700 0 [-165.272   86.504]
4700 1 [-155.339   85.991]
4700 2 [-194.715   65.351]
4800 0 [-171.893   90.574]
4800 1 [-165.788   82.635]
4800 2 [-177.724   53.251]
4900 0 [-178.817   91.757]
4900 1 [-181.039   82.229]
4900 2 [-157.636   58.462]
5000 0 [-184.485   90.526]
5000 1 [-193.13   86.86]
5000 2 [-146.188   77.497]

Process finished with exit code 0
